MComputer_temp/simulation/qsim/MComputer.msim.vcd
$comment
	File created using the following command:
		vcd file MComputer.msim.vcd -direction
$end
$date
	Sun Jul 15 16:33:16 2018
$end
$version
	ModelSim Version 10.1d
$end
$timescale
	1ps
$end
$scope module ACC_vlg_vec_tst $end
$var reg 1 ! CLK $end
$var reg 8 " DATA_IN [7:0] $end
$var reg 1 # EA $end
$var reg 1 $ IA $end
$var wire 1 % DATA_OUT [7] $end
$var wire 1 & DATA_OUT [6] $end
$var wire 1 ' DATA_OUT [5] $end
$var wire 1 ( DATA_OUT [4] $end
$var wire 1 ) DATA_OUT [3] $end
$var wire 1 * DATA_OUT [2] $end
$var wire 1 + DATA_OUT [1] $end
$var wire 1 , DATA_OUT [0] $end
$var wire 1 - sampler $end
$scope module i1 $end
$var wire 1 . gnd $end
$var wire 1 / vcc $end
$var wire 1 0 unknown $end
$var tri1 1 1 devclrn $end
$var tri1 1 2 devpor $end
$var tri1 1 3 devoe $end
$var wire 1 4 DATA_OUT[0]~output_o $end
$var wire 1 5 DATA_OUT[1]~output_o $end
$var wire 1 6 DATA_OUT[2]~output_o $end
$var wire 1 7 DATA_OUT[3]~output_o $end
$var wire 1 8 DATA_OUT[4]~output_o $end
$var wire 1 9 DATA_OUT[5]~output_o $end
$var wire 1 : DATA_OUT[6]~output_o $end
$var wire 1 ; DATA_OUT[7]~output_o $end
$var wire 1 < CLK~input_o $end
$var wire 1 = CLK~inputclkctrl_outclk $end
$var wire 1 > DATA_IN[0]~input_o $end
$var wire 1 ? RES_TEMP[0]~feeder_combout $end
$var wire 1 @ IA~input_o $end
$var wire 1 A EA~input_o $end
$var wire 1 B DATA_IN[1]~input_o $end
$var wire 1 C DATA_IN[2]~input_o $end
$var wire 1 D DATA_IN[3]~input_o $end
$var wire 1 E RES_TEMP[3]~feeder_combout $end
$var wire 1 F DATA_IN[4]~input_o $end
$var wire 1 G DATA_IN[5]~input_o $end
$var wire 1 H DATA_IN[6]~input_o $end
$var wire 1 I RES_TEMP[6]~feeder_combout $end
$var wire 1 J DATA_IN[7]~input_o $end
$var wire 1 K RES_TEMP [7] $end
$var wire 1 L RES_TEMP [6] $end
$var wire 1 M RES_TEMP [5] $end
$var wire 1 N RES_TEMP [4] $end
$var wire 1 O RES_TEMP [3] $end
$var wire 1 P RES_TEMP [2] $end
$var wire 1 Q RES_TEMP [1] $end
$var wire 1 R RES_TEMP [0] $end
$upscope $end
$upscope $end
$enddefinitions $end
#0
$dumpvars
0!
b11111111 "
1#
1$
x,
x+
x*
x)
x(
x'
x&
x%
x-
0.
1/
x0
11
12
13
x4
x5
x6
x7
x8
x9
x:
x;
0<
x=
1>
x?
1@
1A
1B
1C
1D
xE
1F
1G
1H
xI
1J
0R
0Q
0P
0O
0N
0M
0L
0K
$end
#208
0=
#3526
1?
#4040
1E
#4181
1I
#6434
z;
z%
#6435
z7
z:
z)
z&
#6899
z4
z,
#7004
z6
z8
z*
z(
#7048
z9
z'
#8255
z5
z+
#10000
0$
b1111111 "
b111111 "
b110111 "
b110011 "
b110001 "
b110000 "
0-
#10811
0@
0H
0D
0C
0B
0>
#10812
0J
#14529
0?
#15026
0E
#15182
0I
#20000
b10000 "
b0 "
b10000000 "
b10001000 "
b10001001 "
1-
#20764
1D
1>
#20766
1J
#20811
0F
#20812
0G
#24290
1?
#24804
1E
#30000
1!
b10101001 "
b101001 "
b101000 "
0-
#30766
1G
1<
#30811
0>
#30812
0J
#30988
1=
#32857
1R
1O
1K
#34529
0?
#40000
0#
1$
b1101000 "
b1111000 "
b1110000 "
0!
b11110000 "
1-
#40764
1@
1H
1F
#40766
1J
#40811
0A
0D
#40812
0<
#41020
0=
#44945
1I
#45026
0E
#47366
0:
0&
#47463
1;
1%
#47464
17
1)
#47812
06
08
0*
0(
#47844
09
0'
#47929
14
1,
#49284
05
0+
#50000
b11110010 "
1#
0$
b10110010 "
b10100010 "
b10101010 "
0-
#50764
1A
1D
1B
#50811
0@
0H
0F
#54804
1E
#55182
0I
#57100
z;
z%
#57101
z7
z)
#57199
z:
z&
#57586
z4
z,
#57768
z6
z8
z*
z(
#57812
z9
z'
#59017
z5
z+
#60000
b10101110 "
b10001110 "
b10001111 "
b1111 "
1-
#60764
1C
1>
#60812
0J
0G
#64290
1?
#70000
0#
1$
b11111 "
b10111 "
b10010111 "
0-
#70764
1@
1F
#70766
1J
#70811
0A
0D
#75026
0E
#77366
0:
0&
#77463
1;
1%
#77464
17
1)
#77812
06
08
0*
0(
#77844
09
0'
#77929
14
1,
#79284
05
0+
#80000
1!
b10010011 "
b10110011 "
1#
b10100011 "
b100011 "
1-
#80764
1A
#80766
1G
1<
#80811
0F
0C
#80812
0J
#80988
1=
#87100
z;
z%
#87101
z7
z)
#87199
z:
z&
#87586
z4
z,
#87768
z6
z8
z*
z(
#87812
z9
z'
#89017
z5
z+
#90000
b1100011 "
b1100010 "
0$
b1101010 "
b1101110 "
b1001110 "
0-
#90764
1H
1D
1C
#90811
0@
0>
#90812
0G
#94529
0?
#94804
1E
#94945
1I
#100000
0!
b1011110 "
1$
b1111110 "
1-
#100764
1@
1F
#100766
1G
#100812
0<
#101020
0=
#110000
0#
b11111110 "
b10111110 "
b10111010 "
1!
b10101010 "
0$
0-
#110766
1<
1J
#110811
0A
0@
0H
0F
0C
#110988
1=
#115182
0I
#117366
0:
0&
#117463
1;
1%
#117464
17
1)
#117812
06
08
0*
0(
#117844
09
0'
#117929
14
1,
#119284
05
0+
#120000
b10100010 "
b10000010 "
b10 "
1-
#120811
0D
#120812
0J
0G
#125026
0E
#130000
b11 "
b1000011 "
b1000111 "
0!
b1010111 "
b1110111 "
0-
#130764
1H
1F
1C
1>
#130766
1G
#130812
0<
#131020
0=
#134290
1?
#134945
1I
#140000
b1111111 "
b11111111 "
b11111110 "
b11111010 "
1!
b11011010 "
1-
#140764
1D
#140766
1<
1J
#140811
0C
0>
#140812
0G
#140988
1=
#142857
1Q
1P
0O
1N
1M
1L
0K
#144529
0?
#144804
1E
#146575
0;
0%
#146798
18
1(
#146811
16
1*
#146924
07
0)
#147057
1:
1&
#147072
19
1'
#148495
15
1+
#150000
1$
b10011010 "
b10010010 "
b10010 "
b10011 "
b10111 "
0-
#150764
1@
1C
1>
#150811
0H
0D
#150812
0J
#154290
1?
#155026
0E
#155182
0I
#160000
1#
0!
b110111 "
b1110111 "
b1111111 "
b11111111 "
b11111110 "
1-
#160764
1A
1H
1D
#160766
1J
1G
#160811
0>
#160812
0<
#161020
0=
#164529
0?
#164804
1E
#164945
1I
#167101
z:
z&
#167198
z;
z%
#167199
z7
z)
#167586
z4
z,
#167654
z6
z8
z*
z(
#167698
z9
z'
#169019
z5
z+
#170000
b11111010 "
1!
b10111010 "
b111010 "
0-
#170766
1<
#170811
0H
0C
#170812
0J
#170988
1=
#175182
0I
#180000
0#
b10111010 "
1-
#180766
1J
#180811
0A
#187365
0;
0%
#187366
07
0)
#187464
1:
1&
#187926
16
18
1*
1(
#187929
14
1,
#187958
19
1'
#189282
15
1+
#190000
0$
b10011010 "
b10010010 "
b10010110 "
b10110 "
0-
#190764
1C
#190811
0@
0D
#190812
0J
0G
#195026
0E
#200000
b10100 "
b100 "
1#
1$
1-
#200764
1A
1@
#200811
0F
0B
#207101
z:
z&
#207198
z;
z%
#207199
z7
z)
#207586
z4
z,
#207654
z6
z8
z*
z(
#207698
z9
z'
#209019
z5
z+
#210000
b101 "
b100101 "
b100001 "
b10100001 "
0#
0$
0-
#210764
1>
#210766
1J
1G
#210811
0A
0@
0C
#214290
1?
#217365
0;
0%
#217366
07
0)
#217464
1:
1&
#217926
16
18
1*
1(
#217929
14
1,
#217958
19
1'
#219282
15
1+
#220000
0!
b10101001 "
b101001 "
1#
1$
1-
#220764
1A
1@
1D
#220812
0J
0<
#221020
0=
#224804
1E
#227101
z:
z&
#227198
z;
z%
#227199
z7
z)
#227586
z4
z,
#227654
z6
z8
z*
z(
#227698
z9
z'
#229019
z5
z+
#230000
b101011 "
b101010 "
b101110 "
1!
b100110 "
b10100110 "
0$
0-
#230764
1C
1B
#230766
1<
1J
#230811
0@
0D
0>
#230988
1=
#234529
0?
#235026
0E
#240000
b10110110 "
b10010110 "
b10010010 "
0!
b10010 "
1$
1-
#240764
1@
1F
#240811
0C
#240812
0<
0J
0G
#241020
0=
#250000
b1010010 "
0#
b1010011 "
b1011011 "
b1001011 "
1!
b11001011 "
0-
#250764
1H
1D
1>
#250766
1<
1J
#250811
0A
0F
#250988
1=
#254290
1?
#254804
1E
#254945
1I
#257365
0;
0%
#257366
07
0)
#257464
1:
1&
#257926
16
18
1*
1(
#257929
14
1,
#257958
19
1'
#259282
15
1+
#260000
b11101011 "
b11101111 "
0$
b11100111 "
0!
b1100111 "
1-
#260764
1C
#260766
1G
#260811
0@
0D
#260812
0<
0J
#261020
0=
#265026
0E
#270000
b1100101 "
b1110101 "
b1110001 "
1!
b11110001 "
0-
#270764
1F
#270766
1<
1J
#270811
0C
0B
#270988
1=
#272857
0N
#276725
08
0(
#280000
b10110001 "
1#
b10110000 "
b10111000 "
0!
b111000 "
1-
#280764
1A
1D
#280811
0H
0>
#280812
0<
0J
#281020
0=
#284529
0?
#284804
1E
#285182
0I
#287101
z:
z&
#287198
z;
z%
#287199
z7
z)
#287586
z4
z,
#287654
z6
z*
#287698
z9
z'
#287768
z8
z(
#289019
z5
z+
#290000
b11000 "
1$
b11010 "
b1010 "
b1110 "
b1001110 "
0#
0-
#290764
1@
1H
1C
1B
#290811
0A
0F
#290812
0G
#294945
1I
#297365
0;
0%
#297366
07
0)
#297464
1:
1&
#297812
08
0(
#297926
16
1*
#297929
14
1,
#297958
19
1'
#299282
15
1+
#300000
b1000110 "
1!
b11000110 "
b11100110 "
b11110110 "
b10110110 "
1#
1-
#300764
1A
1F
#300766
1<
1J
1G
#300811
0H
0D
#300988
1=
#305026
0E
#305182
0I
#307101
z:
z&
#307198
z;
z%
#307199
z7
z)
#307586
z4
z,
#307654
z6
z*
#307698
z9
z'
#307768
z8
z(
#309019
z5
z+
#310000
b10110111 "
0$
b10110101 "
b10010101 "
b10000101 "
0#
0-
#310764
1>
#310811
0@
0A
0F
0B
#310812
0G
#314290
1?
#317365
0;
0%
#317366
07
0)
#317464
1:
1&
#317812
08
0(
#317926
16
1*
#317929
14
1,
#317958
19
1'
#319282
15
1+
#320000
b10000001 "
0!
b1 "
b1000001 "
b1000000 "
1-
#320764
1H
#320811
0C
0>
#320812
0<
0J
#321020
0=
#324529
0?
#324945
1I
#330000
b1001000 "
b1001010 "
1#
b1001110 "
0-
#330764
1A
1D
1C
1B
#334804
1E
#337101
z:
z&
#337198
z;
z%
#337199
z7
z)
#337586
z4
z,
#337654
z6
z*
#337698
z9
z'
#337768
z8
z(
#339019
z5
z+
#340000
1$
b1101110 "
1!
b11101110 "
b11101111 "
0#
b11101011 "
1-
#340764
1@
1>
#340766
1<
1J
1G
#340811
0A
0C
#340988
1=
#342857
0R
1O
0M
#344290
1?
#347365
0;
0%
#347464
17
1:
1)
1&
#347812
08
0(
#347844
09
0'
#347852
04
0,
#347926
16
1*
#349282
15
1+
#350000
b11111011 "
b11111001 "
0$
0!
1#
0-
#350764
1A
1F
#350811
0@
0B
#350812
0<
#351020
0=
#357101
z7
z:
z)
z&
#357198
z;
z%
#357654
z6
z*
#357663
z4
z,
#357768
z8
z(
#357812
z9
z'
#359019
z5
z+
#360000
b11110001 "
b11010001 "
b1010001 "
b1010101 "
b1000101 "
b1000111 "
1$
1!
1-
#360764
1@
1C
1B
#360766
1<
#360811
0F
0D
#360812
0J
0G
#360988
1=
#362857
1R
0Q
0P
1N
1M
1K
#365026
0E
#370000
b1000110 "
b1001110 "
b11001110 "
0-
#370764
1D
#370766
1J
#370811
0>
#374529
0?
#374804
1E
#380000
b10001110 "
0#
b10101110 "
b10101010 "
b10101000 "
0$
0!
b101000 "
1-
#380766
1G
#380811
0A
0@
0H
0C
0B
#380812
0<
0J
#381020
0=
#385182
0I
#387463
1;
1%
#387464
17
1:
1)
1&
#387812
06
0*
#387926
18
1(
#387929
14
1,
#387958
19
1'
#389284
05
0+
#390000
b111000 "
b111001 "
b1111001 "
1#
1$
0-
#390764
1A
1@
1H
1F
1>
#394290
1?
#394945
1I
#397100
z;
z%
#397101
z7
z:
z)
z&
#397586
z4
z,
#397654
z8
z(
#397698
z9
z'
#397768
z6
z*
#399017
z5
z+
#400000
b1110001 "
b1110011 "
b11110011 "
b11110010 "
b10110010 "
0#
0$
1-
#400764
1B
#400766
1J
#400811
0A
0@
0H
0D
0>
#404529
0?
#405026
0E
#405182
0I
#407463
1;
1%
#407464
17
1:
1)
1&
#407812
06
0*
#407926
18
1(
#407929
14
1,
#407958
19
1'
#409284
05
0+
#410000
b10110110 "
b10100110 "
b10101110 "
b10101100 "
b101100 "
b1101100 "
1#
0-
#410764
1A
1H
1D
1C
#410811
0F
0B
#410812
0J
#414804
1E
#414945
1I
#417100
z;
z%
#417101
z7
z:
z)
z&
#417586
z4
z,
#417654
z8
z(
#417698
z9
z'
#417768
z6
z*
#419017
z5
z+
#420000
1!
1$
b1101000 "
b1111000 "
b1110000 "
b110000 "
0#
1-
#420764
1@
1F
#420766
1<
#420811
0A
0H
0D
0C
#420988
1=
#422857
0R
1P
0N
0K
#425026
0E
#425182
0I
#427365
0;
0%
#427464
17
1:
1)
1&
#427812
08
0(
#427852
04
0,
#427926
16
1*
#427958
19
1'
#429284
05
0+
#430000
b110010 "
b10110010 "
0!
b10110110 "
b11110110 "
0-
#430764
1H
1C
1B
#430766
1J
#430812
0<
#431020
0=
#434945
1I
#440000
b11010110 "
b11000110 "
b11001110 "
b11001100 "
1!
b10001100 "
1-
#440764
1D
#440766
1<
#440811
0H
0F
0B
#440812
0G
#440988
1=
#444804
1E
#445182
0I
#450000
b10001101 "
1#
b1101 "
b1001 "
b101001 "
b100001 "
0-
#450764
1A
1>
#450766
1G
#450811
0D
0C
#450812
0J
#454290
1?
#455026
0E
#457101
z7
z:
z)
z&
#457198
z;
z%
#457654
z6
z*
#457663
z4
z,
#457698
z9
z'
#457768
z8
z(
#459017
z5
z+
#460000
b110001 "
0!
b110000 "
b10110000 "
b10010000 "
b10011000 "
1-
#460764
1F
1D
#460766
1J
#460811
0>
#460812
0<
0G
#461020
0=
#464529
0?
#464804
1E
#470000
b11011000 "
b11011100 "
b11001100 "
1!
b11101100 "
0-
#470764
1H
1C
#470766
1<
1G
#470811
0F
#470988
1=
#474945
1I
#480000
0$
b11101110 "
0#
b11101111 "
b11100111 "
b10100111 "
b10110111 "
1-
#480764
1F
1B
1>
#480811
0@
0A
0H
0D
#484290
1?
#485026
0E
#485182
0I
#487365
0;
0%
#487464
17
1:
1)
1&
#487812
08
0(
#487852
04
0,
#487926
16
1*
#487958
19
1'
#489284
05
0+
#490000
b110111 "
b110011 "
0!
1$
1#
b110010 "
b111010 "
b1111010 "
b1101010 "
0-
#490764
1@
1A
1H
1D
#490811
0F
0C
0>
#490812
0<
0J
#491020
0=
#494529
0?
#494804
1E
#494945
1I
#497101
z7
z:
z)
z&
#497198
z;
z%
#497654
z6
z*
#497663
z4
z,
#497698
z9
z'
#497768
z8
z(
#499017
z5
z+
#500000
b1101000 "
b1101100 "
0$
1-
#500764
1C
#500811
0@
0B
#510000
b1001100 "
1!
0#
b1001110 "
1$
0-
#510764
1@
1B
#510766
1<
#510811
0A
#510812
0G
#510988
1=
#517365
0;
0%
#517464
17
1:
1)
1&
#517812
08
0(
#517852
04
0,
#517926
16
1*
#517958
19
1'
#519284
05
0+
#520000
b1001111 "
b1111 "
b11111 "
0!
0$
1-
#520764
1F
1>
#520811
0@
0H
#520812
0<
#521020
0=
#524290
1?
#525182
0I
#530000
b10111 "
b10101 "
b101 "
1!
1$
0-
#530764
1@
#530766
1<
#530811
0F
0D
0B
#530988
1=
#532857
1R
1Q
1N
0M
0L
#535026
0E
#536798
18
1(
#536914
0:
0&
#536950
09
0'
#537535
14
1,
#538495
15
1+
#540000
b1101 "
1-
#540764
1D
#544804
1E
#550000
b1001 "
1#
b1001001 "
b1001011 "
0!
0-
#550764
1A
1H
1B
#550811
0C
#550812
0<
#551020
0=
#554945
1I
#557101
z7
z)
#557198
z;
z%
#557199
z:
z&
#557586
z4
z,
#557654
z6
z8
z*
z(
#557812
z9
z'
#559019
z5
z+
#560000
b1101011 "
0$
1!
1-
#560766
1<
1G
#560811
0@
#560988
1=
#570000
b11101011 "
b11101010 "
b11100010 "
b11100110 "
0#
1$
0!
0-
#570764
1@
1C
#570766
1J
#570811
0A
0D
0>
#570812
0<
#571020
0=
#574529
0?
#575026
0E
#577365
0;
0%
#577366
0:
0&
#577464
17
1)
#577844
09
0'
#577926
16
18
1*
1(
#577929
14
1,
#579282
15
1+
#580000
b11100100 "
b11101100 "
b11101000 "
0$
1!
1-
#580764
1D
#580766
1<
#580811
0@
0C
0B
#580988
1=
#584804
1E
#590000
b10101000 "
b10001000 "
b10001001 "
b10000001 "
1$
0!
0-
#590764
1@
1>
#590811
0H
0D
#590812
0<
0G
#591020
0=
#594290
1?
#595026
0E
#595182
0I
#600000
b1 "
b101 "
b1000101 "
b1100101 "
0$
1!
1-
#600764
1H
1C
#600766
1<
1G
#600811
0@
#600812
0J
#600988
1=
#604945
1I
#610000
b1100111 "
b1100110 "
b11100110 "
b11100010 "
b10100010 "
b10000010 "
1$
0!
0-
#610764
1@
1B
#610766
1J
#610811
0H
0C
0>
#610812
0<
0G
#611020
0=
#614529
0?
#615182
0I
#620000
b10000000 "
b10000001 "
b10000101 "
b11000101 "
0$
1-
#620764
1H
1C
1>
#620811
0@
0B
#624290
1?
#624945
1I
#630000
b11010101 "
b1010101 "
b1110101 "
b1110100 "
b1110000 "
b110000 "
0-
#630764
1F
#630766
1G
#630811
0H
0C
0>
#630812
0J
#634529
0?
#635182
0I
#640000
b111000 "
b111010 "
b11010 "
b11110 "
1-
#640764
1D
1C
1B
#640812
0G
#644804
1E
#650000
1$
b1110 "
b1100 "
0-
#650764
1@
#650811
0F
0B
#660000
1#
b1101 "
b1001101 "
b1001001 "
0$
b1001011 "
1-
#660764
1A
1H
1B
1>
#660811
0@
0C
#664290
1?
#664945
1I
#667101
z7
z)
#667198
z;
z%
#667199
z:
z&
#667586
z4
z,
#667654
z6
z8
z*
z(
#667812
z9
z'
#669019
z5
z+
#670000
1!
b1101011 "
b1111011 "
0#
b111011 "
1$
b111001 "
0-
#670764
1@
1F
#670766
1G
1<
#670811
0A
0H
0B
#670988
1=
#672857
0P
0N
1L
#675182
0I
#677365
0;
0%
#677464
17
1:
1)
1&
#677812
06
08
0*
0(
#677844
09
0'
#677929
14
1,
#679282
15
1+
#680000
b11001 "
b1001 "
1-
#680811
0F
#680812
0G
#690000
b1 "
b0 "
b100 "
0!
0$
0-
#690764
1C
#690811
0@
0D
0>
#690812
0<
#691020
0=
#694529
0?
#695026
0E
#700000
b10000100 "
b11000100 "
b11000101 "
b11000001 "
1!
1$
1-
#700764
1@
1H
1>
#700766
1<
1J
#700811
0C
#700988
1=
#702857
0R
0Q
1P
0O
0L
#704290
1?
#704945
1I
#706811
16
1*
#706914
0:
0&
#706924
07
0)
#707401
04
0,
#708497
05
0+
#710000
1#
b11100001 "
b11101001 "
b1101001 "
b101001 "
b101000 "
b101100 "
0$
0-
#710764
1A
1D
1C
#710766
1G
#710811
0@
0H
0>
#710812
0J
#714529
0?
#714804
1E
#715182
0I
#717198
z;
z%
#717199
z7
z:
z)
z&
#717654
z6
z*
#717663
z4
z,
#717768
z8
z(
#717812
z9
z'
#719017
z5
z+
#720000
b111100 "
b11100 "
b1011100 "
b1011101 "
1-
#720764
1H
1F
1>
#720812
0G
#724290
1?
#724945
1I
#730000
0!
0#
b1010101 "
b11010101 "
1$
b11110101 "
0-
#730764
1@
#730766
1J
1G
#730811
0A
0D
#730812
0<
#731020
0=
#735026
0E
#737365
0;
0%
#737366
07
0:
0)
0&
#737812
08
0(
#737844
09
0'
#737852
04
0,
#737926
16
1*
#739284
05
0+
#740000
b11110001 "
b11100001 "
b10100001 "
b10100000 "
1!
b100000 "
b0 "
1-
#740766
1<
#740811
0H
0F
0C
0>
#740812
0J
0G
#740988
1=
#744529
0?
#745182
0I
#750000
b1000 "
b1100 "
b11100 "
b1011100 "
b1011101 "
0!
b11011101 "
b11111101 "
0-
#750764
1H
1F
1D
1C
1>
#750766
1J
1G
#750812
0<
#751020
0=
#754290
1?
#754804
1E
#754945
1I
#760000
1#
0$
b11111001 "
b10111001 "
b10111000 "
1!
b10011000 "
1-
#760764
1A
#760766
1<
#760811
0@
0H
0C
0>
#760812
0G
#760988
1=
#764529
0?
#765182
0I
#767198
z;
z%
#767199
z7
z:
z)
z&
#767654
z6
z*
#767663
z4
z,
#767768
z8
z(
#767812
z9
z'
#769017
z5
z+
#770000
b10011010 "
b10010010 "
0#
1$
b10010110 "
b11010110 "
0!
b11110110 "
0-
#770764
1@
1H
1C
1B
#770766
1G
#770811
0A
0D
#770812
0<
#771020
0=
#774945
1I
#775026
0E
#777365
0;
0%
#777366
07
0:
0)
0&
#777812
08
0(
#777844
09
0'
#777852
04
0,
#777926
16
1*
#779284
05
0+
#780000
b11100110 "
b1100110 "
b1100100 "
b1101100 "
b1101000 "
b1001000 "
1-
#780764
1D
#780811
0F
0C
0B
#780812
0J
0G
#784804
1E
#790000
b1001001 "
b1001 "
1!
b11001 "
b10011001 "
b10011011 "
b10010011 "
b10110011 "
0-
#790764
1F
1B
1>
#790766
1<
1J
1G
#790811
0H
0D
#790988
1=
#794290
1?
#795026
0E
#795182
0I
#800000
b10110010 "
b11110010 "
0!
b11100010 "
b11101010 "
1-
#800764
1H
1D
#800811
0F
0>
#800812
0<
#801020
0=
#804529
0?
#804804
1E
#804945
1I
#810000
1#
0$
b11001010 "
b11001011 "
1!
b11000011 "
0-
#810764
1A
1>
#810766
1<
#810811
0@
0D
#810812
0G
#810988
1=
#814290
1?
#815026
0E
#817198
z;
z%
#817199
z7
z:
z)
z&
#817654
z6
z*
#817663
z4
z,
#817768
z8
z(
#817812
z9
z'
#819017
z5
z+
#820000
b11000111 "
b11000101 "
b10000101 "
b10000100 "
b10001100 "
1-
#820764
1D
1C
#820811
0H
0B
0>
#824529
0?
#824804
1E
#825182
0I
#830000
b1100 "
1$
b1110 "
b1001110 "
b1001111 "
b1000111 "
0-
#830764
1@
1H
1B
1>
#830811
0D
#830812
0J
#834290
1?
#834945
1I
#835026
0E
#840000
0#
b111 "
1-
#840811
0A
0H
#845182
0I
#847365
0;
0%
#847366
07
0:
0)
0&
#847812
08
0(
#847844
09
0'
#847852
04
0,
#847926
16
1*
#849284
05
0+
#850000
b100111 "
b10100111 "
0$
b10100101 "
0-
#850766
1J
1G
#850811
0@
0B
#860000
b10110101 "
b10110001 "
b10110000 "
b10111000 "
b10011000 "
b11000 "
1$
b11010 "
1-
#860764
1@
1F
1D
1B
#860811
0C
0>
#860812
0J
0G
#864529
0?
#864804
1E
#870000
0!
1#
b1011010 "
b1001010 "
b1001110 "
b1000110 "
b1100110 "
0$
b1100100 "
0-
#870764
1A
1H
1C
#870766
1G
#870811
0@
0F
0D
0B
#870812
0<
#871020
0=
#874945
1I
#875026
0E
#877198
z;
z%
#877199
z7
z:
z)
z&
#877654
z6
z*
#877663
z4
z,
#877768
z8
z(
#877812
z9
z'
#879017
z5
z+
#880000
0#
b100100 "
b110100 "
b111100 "
1-
#880764
1F
1D
#880811
0A
0H
#884804
1E
#885182
0I
#887365
0;
0%
#887366
07
0:
0)
0&
#887812
08
0(
#887844
09
0'
#887852
04
0,
#887926
16
1*
#889284
05
0+
#890000
b111101 "
1$
b111111 "
1#
b101111 "
0-
#890764
1@
1A
1B
1>
#890811
0F
#894290
1?
#897198
z;
z%
#897199
z7
z:
z)
z&
#897654
z6
z*
#897663
z4
z,
#897768
z8
z(
#897812
z9
z'
#899017
z5
z+
#900000
1!
b101011 "
b1101011 "
b1100011 "
b1100010 "
b1100000 "
b1110000 "
1-
#900764
1H
1F
#900766
1<
#900811
0D
0C
0B
0>
#900988
1=
#904529
0?
#904945
1I
#905026
0E
#910000
b1110100 "
0-
#910764
1C
#920000
b1010100 "
0$
b1011100 "
b1011101 "
b1001101 "
b1001001 "
1-
#920764
1D
1>
#920811
0@
0F
0C
#920812
0G
#924290
1?
#924804
1E
#930000
0!
b1101001 "
1$
b1100001 "
b1110001 "
0-
#930764
1@
1F
#930766
1G
#930811
0D
#930812
0<
#931020
0=
#935026
0E
#940000
0#
b1110011 "
b1010011 "
0$
b1000011 "
1-
#940764
1B
#940811
0A
0@
0F
#940812
0G
#947365
0;
0%
#947366
07
0:
0)
0&
#947812
08
0(
#947844
09
0'
#947852
04
0,
#947926
16
1*
#949284
05
0+
#950000
b11000011 "
b10000011 "
b10000111 "
1!
b10001111 "
1#
b10011111 "
0-
#950764
1A
1F
1D
1C
#950766
1<
1J
#950811
0H
#950988
1=
#952857
1R
1Q
0P
1L
#954804
1E
#955182
0I
#957198
z;
z%
#957199
z7
z:
z)
z&
#957654
z6
z*
#957663
z4
z,
#957768
z8
z(
#957812
z9
z'
#959017
z5
z+
#960000
b10011110 "
b10111110 "
1$
b111110 "
b111010 "
b110010 "
0#
1-
#960764
1@
#960766
1G
#960811
0A
0D
0C
0>
#960812
0J
#964529
0?
#965026
0E
#967365
0;
0%
#967366
07
0)
#967464
1:
1&
#967812
06
08
0*
0(
#967844
09
0'
#967929
14
1,
#969282
15
1+
#970000
b1110010 "
0!
b1100010 "
b1000010 "
b1000110 "
1#
0-
#970764
1A
1H
1C
#970811
0F
#970812
0<
0G
#971020
0=
#974945
1I
#977101
z:
z&
#977198
z;
z%
#977199
z7
z)
#977586
z4
z,
#977768
z6
z8
z*
z(
#977812
z9
z'
#979019
z5
z+
#980000
b1000111 "
0$
b111 "
1!
b10111 "
1-
#980764
1F
1>
#980766
1<
#980811
0@
0H
#980988
1=
#984290
1?
#985182
0I
#990000
b10101 "
b10010101 "
b10011101 "
b10111101 "
0#
1$
b11111101 "
0!
b11101101 "
0-
#990764
1@
1H
1D
#990766
1J
1G
#990811
0A
0F
0B
#990812
0<
#991020
0=
#994804
1E
#994945
1I
#997365
0;
0%
#997366
07
0)
#997464
1:
1&
#997812
06
08
0*
0(
#997844
09
0'
#997929
14
1,
#999282
15
1+
