MComputer/simulation/qsim/Mytest.msim.vcd
$comment
	File created using the following command:
		vcd file Mytest.msim.vcd -direction
$end
$date
	Thu Jul 12 18:48:47 2018
$end
$version
	ModelSim Version 10.1d
$end
$timescale
	1ps
$end
$scope module mc_temp_vhd_vec_tst $end
$var wire 1 ! CLK_50M $end
$var wire 1 " CLR $end
$var wire 1 # RESULT [7] $end
$var wire 1 $ RESULT [6] $end
$var wire 1 % RESULT [5] $end
$var wire 1 & RESULT [4] $end
$var wire 1 ' RESULT [3] $end
$var wire 1 ( RESULT [2] $end
$var wire 1 ) RESULT [1] $end
$var wire 1 * RESULT [0] $end
$scope module i1 $end
$var wire 1 + gnd $end
$var wire 1 , vcc $end
$var wire 1 - unknown $end
$var wire 1 . devoe $end
$var wire 1 / devclrn $end
$var wire 1 0 devpor $end
$var wire 1 1 ww_devoe $end
$var wire 1 2 ww_devclrn $end
$var wire 1 3 ww_devpor $end
$var wire 1 4 ww_RESULT [7] $end
$var wire 1 5 ww_RESULT [6] $end
$var wire 1 6 ww_RESULT [5] $end
$var wire 1 7 ww_RESULT [4] $end
$var wire 1 8 ww_RESULT [3] $end
$var wire 1 9 ww_RESULT [2] $end
$var wire 1 : ww_RESULT [1] $end
$var wire 1 ; ww_RESULT [0] $end
$var wire 1 < ww_CLK_50M $end
$var wire 1 = ww_CLR $end
$var wire 1 > \inst7|Mux2~0clkctrl_INCLK_bus\ [3] $end
$var wire 1 ? \inst7|Mux2~0clkctrl_INCLK_bus\ [2] $end
$var wire 1 @ \inst7|Mux2~0clkctrl_INCLK_bus\ [1] $end
$var wire 1 A \inst7|Mux2~0clkctrl_INCLK_bus\ [0] $end
$var wire 1 B \CLR~inputclkctrl_INCLK_bus\ [3] $end
$var wire 1 C \CLR~inputclkctrl_INCLK_bus\ [2] $end
$var wire 1 D \CLR~inputclkctrl_INCLK_bus\ [1] $end
$var wire 1 E \CLR~inputclkctrl_INCLK_bus\ [0] $end
$var wire 1 F \inst6|ISUM~clkctrl_INCLK_bus\ [3] $end
$var wire 1 G \inst6|ISUM~clkctrl_INCLK_bus\ [2] $end
$var wire 1 H \inst6|ISUM~clkctrl_INCLK_bus\ [1] $end
$var wire 1 I \inst6|ISUM~clkctrl_INCLK_bus\ [0] $end
$var wire 1 J \inst6|ESUM~0clkctrl_INCLK_bus\ [3] $end
$var wire 1 K \inst6|ESUM~0clkctrl_INCLK_bus\ [2] $end
$var wire 1 L \inst6|ESUM~0clkctrl_INCLK_bus\ [1] $end
$var wire 1 M \inst6|ESUM~0clkctrl_INCLK_bus\ [0] $end
$var wire 1 N \CLK_50M~inputclkctrl_INCLK_bus\ [3] $end
$var wire 1 O \CLK_50M~inputclkctrl_INCLK_bus\ [2] $end
$var wire 1 P \CLK_50M~inputclkctrl_INCLK_bus\ [1] $end
$var wire 1 Q \CLK_50M~inputclkctrl_INCLK_bus\ [0] $end
$var wire 1 R \inst1|CLK_TEMP~clkctrl_INCLK_bus\ [3] $end
$var wire 1 S \inst1|CLK_TEMP~clkctrl_INCLK_bus\ [2] $end
$var wire 1 T \inst1|CLK_TEMP~clkctrl_INCLK_bus\ [1] $end
$var wire 1 U \inst1|CLK_TEMP~clkctrl_INCLK_bus\ [0] $end
$var wire 1 V \RESULT[7]~output_o\ $end
$var wire 1 W \RESULT[6]~output_o\ $end
$var wire 1 X \RESULT[5]~output_o\ $end
$var wire 1 Y \RESULT[4]~output_o\ $end
$var wire 1 Z \RESULT[3]~output_o\ $end
$var wire 1 [ \RESULT[2]~output_o\ $end
$var wire 1 \ \RESULT[1]~output_o\ $end
$var wire 1 ] \RESULT[0]~output_o\ $end
$var wire 1 ^ \CLK_50M~input_o\ $end
$var wire 1 _ \CLK_50M~inputclkctrl_outclk\ $end
$var wire 1 ` \inst1|COUNT~0_combout\ $end
$var wire 1 a \inst1|COUNT~q\ $end
$var wire 1 b \inst1|CLK_TEMP~0_combout\ $end
$var wire 1 c \inst1|CLK_TEMP~feeder_combout\ $end
$var wire 1 d \inst1|CLK_TEMP~q\ $end
$var wire 1 e \inst1|CLK_TEMP~clkctrl_outclk\ $end
$var wire 1 f \inst9|QOUT[1]~0_combout\ $end
$var wire 1 g \CLR~input_o\ $end
$var wire 1 h \CLR~inputclkctrl_outclk\ $end
$var wire 1 i \inst8|ADDR_OUT[1]~feeder_combout\ $end
$var wire 1 j \inst12|TEMP[4]~feeder_combout\ $end
$var wire 1 k \inst12|TEMP[6]~feeder_combout\ $end
$var wire 1 l \inst12|TEMP[0]~1_combout\ $end
$var wire 1 m \inst12|TEMP[1]~0_combout\ $end
$var wire 1 n \inst12|TEMP[2]~feeder_combout\ $end
$var wire 1 o \inst5|Mux0~0_combout\ $end
$var wire 1 p \inst6|IDR~0_combout\ $end
$var wire 1 q \inst6|IDR~combout\ $end
$var wire 1 r \inst6|IIR~combout\ $end
$var wire 1 s \inst5|Mux4~0_combout\ $end
$var wire 1 t \inst9|QOUT[2]~2_combout\ $end
$var wire 1 u \inst8|ADDR_OUT[2]~feeder_combout\ $end
$var wire 1 v \inst5|Mux4~1_combout\ $end
$var wire 1 w \inst6|IA~2_combout\ $end
$var wire 1 x \inst5|Mux5~0_combout\ $end
$var wire 1 y \inst7|REGQ[0]~feeder_combout\ $end
$var wire 1 z \inst6|IA~3_combout\ $end
$var wire 1 { \inst6|IMAR~0_combout\ $end
$var wire 1 | \inst6|IMAR~combout\ $end
$var wire 1 } \inst5|Mux1~0_combout\ $end
$var wire 1 ~ \inst7|Mux0~0_combout\ $end
$var wire 1 !! \inst6|IPC~1_combout\ $end
$var wire 1 "! \inst6|IPC~0_combout\ $end
$var wire 1 #! \inst6|IPC~2_combout\ $end
$var wire 1 $! \inst9|QOUT[0]~1_combout\ $end
$var wire 1 %! \inst8|ADDR_OUT[0]~feeder_combout\ $end
$var wire 1 &! \inst3|REGQ[2]~0_combout\ $end
$var wire 1 '! \inst7|Mux1~0_combout\ $end
$var wire 1 (! \inst7|Mux2~0_combout\ $end
$var wire 1 )! \inst7|Mux2~0clkctrl_outclk\ $end
$var wire 1 *! \inst6|ISUM~combout\ $end
$var wire 1 +! \inst6|ISUM~clkctrl_outclk\ $end
$var wire 1 ,! \inst6|IA~4_combout\ $end
$var wire 1 -! \inst6|IA~combout\ $end
$var wire 1 .! \inst2|Add0~1\ $end
$var wire 1 /! \inst2|Add0~3\ $end
$var wire 1 0! \inst2|Add0~5\ $end
$var wire 1 1! \inst2|Add0~7\ $end
$var wire 1 2! \inst2|Add0~9\ $end
$var wire 1 3! \inst2|Add0~10_combout\ $end
$var wire 1 4! \inst6|ESUM~0_combout\ $end
$var wire 1 5! \inst6|ESUM~0clkctrl_outclk\ $end
$var wire 1 6! \inst2|Add0~8_combout\ $end
$var wire 1 7! \inst2|Add0~6_combout\ $end
$var wire 1 8! \inst2|Add0~4_combout\ $end
$var wire 1 9! \inst2|Add0~2_combout\ $end
$var wire 1 :! \inst2|Add0~0_combout\ $end
$var wire 1 ;! \inst2|Add0~13\ $end
$var wire 1 <! \inst2|Add0~14_combout\ $end
$var wire 1 =! \inst2|Add0~12_combout\ $end
$var wire 1 >! \inst7|REGQ\ [7] $end
$var wire 1 ?! \inst7|REGQ\ [6] $end
$var wire 1 @! \inst7|REGQ\ [5] $end
$var wire 1 A! \inst7|REGQ\ [4] $end
$var wire 1 B! \inst7|REGQ\ [3] $end
$var wire 1 C! \inst7|REGQ\ [2] $end
$var wire 1 D! \inst7|REGQ\ [1] $end
$var wire 1 E! \inst7|REGQ\ [0] $end
$var wire 1 F! \inst2|ALU_TEMP\ [7] $end
$var wire 1 G! \inst2|ALU_TEMP\ [6] $end
$var wire 1 H! \inst2|ALU_TEMP\ [5] $end
$var wire 1 I! \inst2|ALU_TEMP\ [4] $end
$var wire 1 J! \inst2|ALU_TEMP\ [3] $end
$var wire 1 K! \inst2|ALU_TEMP\ [2] $end
$var wire 1 L! \inst2|ALU_TEMP\ [1] $end
$var wire 1 M! \inst2|ALU_TEMP\ [0] $end
$var wire 1 N! \inst12|TEMP\ [7] $end
$var wire 1 O! \inst12|TEMP\ [6] $end
$var wire 1 P! \inst12|TEMP\ [5] $end
$var wire 1 Q! \inst12|TEMP\ [4] $end
$var wire 1 R! \inst12|TEMP\ [3] $end
$var wire 1 S! \inst12|TEMP\ [2] $end
$var wire 1 T! \inst12|TEMP\ [1] $end
$var wire 1 U! \inst12|TEMP\ [0] $end
$var wire 1 V! \inst9|QOUT\ [2] $end
$var wire 1 W! \inst9|QOUT\ [1] $end
$var wire 1 X! \inst9|QOUT\ [0] $end
$var wire 1 Y! \inst4|REGQ\ [7] $end
$var wire 1 Z! \inst4|REGQ\ [6] $end
$var wire 1 [! \inst4|REGQ\ [5] $end
$var wire 1 \! \inst4|REGQ\ [4] $end
$var wire 1 ]! \inst4|REGQ\ [3] $end
$var wire 1 ^! \inst4|REGQ\ [2] $end
$var wire 1 _! \inst4|REGQ\ [1] $end
$var wire 1 `! \inst4|REGQ\ [0] $end
$var wire 1 a! \inst8|ADDR_OUT\ [2] $end
$var wire 1 b! \inst8|ADDR_OUT\ [1] $end
$var wire 1 c! \inst8|ADDR_OUT\ [0] $end
$var wire 1 d! \inst3|REGQ\ [7] $end
$var wire 1 e! \inst3|REGQ\ [6] $end
$var wire 1 f! \inst3|REGQ\ [5] $end
$var wire 1 g! \inst3|REGQ\ [4] $end
$var wire 1 h! \inst3|REGQ\ [3] $end
$var wire 1 i! \inst3|REGQ\ [2] $end
$var wire 1 j! \inst3|REGQ\ [1] $end
$var wire 1 k! \inst3|REGQ\ [0] $end
$var wire 1 l! \inst2|ALU_OUT\ [7] $end
$var wire 1 m! \inst2|ALU_OUT\ [6] $end
$var wire 1 n! \inst2|ALU_OUT\ [5] $end
$var wire 1 o! \inst2|ALU_OUT\ [4] $end
$var wire 1 p! \inst2|ALU_OUT\ [3] $end
$var wire 1 q! \inst2|ALU_OUT\ [2] $end
$var wire 1 r! \inst2|ALU_OUT\ [1] $end
$var wire 1 s! \inst2|ALU_OUT\ [0] $end
$var wire 1 t! \inst6|ALT_INV_IMAR~combout\ $end
$var wire 1 u! \inst6|ALT_INV_IA~combout\ $end
$var wire 1 v! \inst6|ALT_INV_IIR~combout\ $end
$upscope $end
$upscope $end
$enddefinitions $end
#0
$dumpvars
0!
x"
0+
1,
x-
1.
1/
10
11
12
13
0<
x=
0V
0W
0X
0Y
0Z
0[
0\
0]
x^
x_
1`
0a
xb
xc
0d
xe
xf
xg
xh
xi
xj
xk
xl
xm
xn
xo
xp
xq
xr
xs
xt
xu
xv
xw
xx
xy
xz
x{
x|
x}
0~
x!!
0"!
x#!
x$!
x%!
x&!
x'!
x(!
x)!
x*!
x+!
x,!
x-!
x.!
x/!
x0!
x1!
x2!
x3!
x4!
x5!
x6!
x7!
x8!
x9!
x:!
x;!
x<!
x=!
xt!
xu!
xv!
04
05
06
07
08
09
0:
0;
0>!
0?!
x@!
0A!
0B!
0C!
xD!
0E!
xF!
xG!
xH!
xI!
xJ!
xK!
xL!
xM!
0N!
0O!
0P!
0Q!
0R!
0S!
0T!
0U!
0V!
0W!
0X!
0Y!
0Z!
x[!
0\!
0]!
0^!
x_!
0`!
0a!
0b!
0c!
0d!
0e!
xf!
0g!
0h!
0i!
xj!
0k!
xl!
xm!
xn!
xo!
xp!
xq!
xr!
xs!
1N
1O
1P
xQ
1R
1S
1T
0U
1B
1C
1D
xE
1>
1?
1@
xA
1F
1G
1H
xI
1J
1K
1L
xM
0#
0$
0%
0&
0'
0(
0)
0*
$end
#540
0n
#700
1l
#711
1m
0w
#714
0f
#715
0t
#716
0o
#812
0^
0Q
#856
0,!
#897
0p
#905
0u
#917
1{
#921
0(!
0A
#948
0%!
#949
0j
#964
0!!
0i
#967
0k
#992
0;!
#1020
0_
#1080
0'!
#1100
04!
0M
#1139
0x
#1160
1&!
#1318
0z
#1322
0y
#1379
0.!
#1407
02!
#1408
0e
#1430
0=!
1:!
#1452
1/!
#1525
00!
#1569
0<!
#1598
11!
#1625
x5!
#1634
x)!
#1643
x+!
#1720
0}
#1722
1s
#1725
1v
#1728
0#!
#1956
09!
#1984
03!
#2000
1!
1<
#2029
08!
#2102
07!
#2175
06!
#2423
0)!
#2569
05!
#2718
0b
#2766
1^
1Q
#2988
1_
#2992
0$!
#3952
0c
#3992
0q
#3994
0|
1t!
#4000
0!
0<
#4013
1r
0v!
#4164
1-!
0u!
#4225
x\
x:
x)
#4344
1*!
1I
#4494
x[
x9
x(
#4558
xV
x4
x#
#4572
xW
x5
x$
#4812
0^
0Q
#4818
x]
x;
x*
#4858
1a
#4918
xZ
x8
x'
#5001
xY
x7
x&
#5003
xX
x6
x%
#5020
0_
#5331
1b
#5340
0`
#5987
1+!
#6000
1!
1<
#6680
1c
#6766
1^
1Q
#6988
1_
#8000
0!
0<
#8812
0^
0Q
#8858
1d
0a
1U
#9020
0_
#9320
1`
#9379
0b
#10000
1!
1<
#10327
1e
#10613
0c
#10766
1^
1Q
#10988
1_
#11771
1b
#12000
0!
0<
#12193
1T!
1U!
#12677
1n
#12810
0m
#12812
0^
0Q
#12858
0d
1a
0U
#13009
1p
#13020
0_
#13031
0{
#13120
1c
#13309
0b
#13340
0`
#14000
1!
1<
#14228
1|
0t!
#14266
0e
#14270
1q
#14543
0c
#14766
1^
1Q
#14988
1_
#15588
1b
#16000
0!
0<
#16812
0^
0Q
#16858
0a
#16937
1c
#17020
0_
#17320
1`
#17379
0b
#18000
1!
1<
#18613
0c
#18766
1^
1Q
#18988
1_
#20000
0!
0<
#20812
0^
0Q
#20858
1a
#21020
0_
#21331
1b
#21340
0`
#22000
1!
1<
#22680
1c
#22766
1^
1Q
#22988
1_
#24000
0!
0<
#24812
0^
0Q
#24858
1d
0a
1U
#25020
0_
#25320
1`
#25379
0b
#26000
1!
1<
#26327
1e
#26613
0c
#26766
1^
1Q
#26988
1_
#27771
1b
#28000
0!
0<
#28191
1i!
1h!
1g!
#28193
1S!
0T!
#28733
0n
#28812
0^
0Q
#28858
0d
1a
0U
#29020
0_
#29090
0p
#29120
1c
#29309
0b
#29340
0`
#29608
0:!
#29631
19!
#29721
1.!
#29794
0/!
#29834
0r
1v!
#29844
1#!
#29867
10!
#29940
01!
#29960
18!
#29970
17!
#30000
1!
1<
#30266
0e
#30284
0q
#30298
09!
#30371
08!
#30444
07!
#30543
0c
#30547
16!
#30766
1^
1Q
#30988
1_
#31151
1$!
#31588
1b
#32000
0!
0<
#32812
0^
0Q
#32858
0a
#32937
1c
#33020
0_
#33320
1`
#33379
0b
#34000
1!
1<
#34613
0c
#34766
1^
1Q
#34988
1_
#36000
0!
0<
#36812
0^
0Q
#36858
1a
#37020
0_
#37331
1b
#37340
0`
#38000
1!
1<
#38680
1c
#38766
1^
1Q
#38988
1_
#40000
0!
0<
#40812
0^
0Q
#40858
1d
0a
1U
#41020
0_
#41320
1`
#41379
0b
#42000
1!
1<
#42327
1e
#42613
0c
#42630
1C!
1B!
1A!
#42766
1^
1Q
#42988
1_
#43135
1~
#43451
1w
#43771
1b
#44000
0!
0<
#44190
1z
#44193
1R!
0S!
#44197
1X!
#44679
0$!
#44812
0^
0Q
#44858
0d
1a
0U
#44908
1f
#45020
0_
#45120
1c
#45175
1j
#45198
1%!
#45309
0b
#45340
0`
#45749
0#!
#45771
1r
0v!
#45921
1{
#46000
1!
1<
#46266
0e
#46543
0c
#46766
1^
1Q
#46961
0f
#46988
1_
#47003
1$!
#47205
0|
1t!
#47588
1b
#48000
0!
0<
#48812
0^
0Q
#48858
0a
#48937
1c
#49020
0_
#49320
1`
#49379
0b
#50000
1!
1<
#50613
0c
#50766
1^
1Q
#50988
1_
#52000
0!
0<
#52812
0^
0Q
#52858
1a
#53020
0_
#53331
1b
#53340
0`
#54000
1!
1<
#54680
1c
#54766
1^
1Q
#54988
1_
#56000
0!
0<
#56812
0^
0Q
#56858
1d
0a
1U
#57020
0_
#57320
1`
#57379
0b
#58000
1!
1<
#58327
1e
#58613
0c
#58766
1^
1Q
#58988
1_
#59771
1b
#60000
0!
0<
#60192
1c!
#60193
0R!
1Q!
#60812
0^
0Q
#60822
1p
#60858
0d
1a
0U
#61020
0_
#61120
1c
#61142
0j
#61309
0b
#61335
0s
#61337
0&!
#61338
0v
#61340
0`
#61444
0{
#62000
1!
1<
#62083
1q
#62266
0e
#62543
0c
#62641
1|
0t!
#62766
1^
1Q
#62988
1_
#63588
1b
#64000
0!
0<
#64812
0^
0Q
#64858
0a
#64937
1c
#65020
0_
#65320
1`
#65379
0b
#66000
1!
1<
#66613
0c
#66766
1^
1Q
#66988
1_
#68000
0!
0<
#68812
0^
0Q
#68858
1a
#69020
0_
#69331
1b
#69340
0`
#70000
1!
1<
#70680
1c
#70766
1^
1Q
#70988
1_
#72000
0!
0<
#72812
0^
0Q
#72858
1d
0a
1U
#73020
0_
#73320
1`
#73379
0b
#74000
1!
1<
#74327
1e
#74613
0c
#74766
1^
1Q
#74988
1_
#75771
1b
#76000
0!
0<
#76191
0i!
0h!
0g!
#76193
1P!
0Q!
#76812
0^
0Q
#76858
0d
1a
0U
#76893
0p
#77020
0_
#77120
1c
#77203
1!!
#77207
1k
#77309
0b
#77340
0`
#77570
0.!
#77621
1:!
#77623
19!
#77643
1/!
#77716
00!
#77789
11!
#77940
18!
#77950
17!
#77953
1#!
#78000
1!
1<
#78087
0q
#78147
09!
#78220
08!
#78266
0e
#78293
07!
#78366
06!
#78543
0c
#78766
1^
1Q
#78988
1_
#79210
1f
#79270
0$!
#79588
1b
#80000
0!
0<
#80812
0^
0Q
#80858
0a
#80937
1c
#81020
0_
#81320
1`
#81379
0b
#82000
1!
1<
#82613
0c
#82766
1^
1Q
#82988
1_
#84000
0!
0<
#84812
0^
0Q
#84858
1a
#85020
0_
#85331
1b
#85340
0`
#86000
1!
1<
#86680
1c
#86766
1^
1Q
#86988
1_
#88000
0!
0<
#88812
0^
0Q
#88858
1d
0a
1U
#89020
0_
#89320
1`
#89379
0b
#90000
1!
1<
#90327
1e
#90331
1O!
#90613
0c
#90766
1^
1Q
#90988
1_
#91666
1,!
#91771
1b
#92000
0!
0<
#92193
0P!
#92197
0X!
1W!
#92659
1$!
#92679
0f
#92812
0^
0Q
#92858
0d
1a
0U
#92933
1f
#93020
0_
#93120
1c
#93145
0%!
#93157
0!!
#93160
0k
#93209
1i
#93309
0b
#93340
0`
#93921
0#!
#94000
1!
1<
#94110
0-!
1u!
#94266
0e
#94543
0c
#94766
1^
1Q
#94988
1_
#95185
0$!
#95588
1b
#96000
0!
0<
#96812
0^
0Q
#96858
0a
#96937
1c
#97020
0_
#97320
1`
#97379
0b
#98000
1!
1<
#98613
0c
#98766
1^
1Q
#98988
1_
#100000
0!
0<
#100812
0^
0Q
#100858
1a
#101020
0_
#101331
1b
#101340
0`
#102000
1!
1<
#102680
1c
#102766
1^
1Q
#102988
1_
#104000
0!
0<
#104812
0^
0Q
#104858
1d
0a
1U
#105020
0_
#105320
1`
#105379
0b
#106000
1!
1<
#106327
1e
#106331
0O!
#106613
0c
#106766
1^
1Q
#106988
1_
#107637
0,!
#107771
1b
#108000
0!
0<
#108193
1N!
#108805
0l
#108812
0^
0Q
#108858
0d
1a
0U
#109020
0_
#109120
1c
#109309
0b
#109340
0`
#109916
1-!
0u!
#110000
1!
1<
#110266
0e
#110543
0c
#110766
1^
1Q
#110988
1_
#111588
1b
#112000
0!
0<
#112812
0^
0Q
#112858
0a
#112937
1c
#113020
0_
#113320
1`
#113379
0b
#114000
1!
1<
#114613
0c
#114766
1^
1Q
#114988
1_
#116000
0!
0<
#116812
0^
0Q
#116858
1a
#117020
0_
#117331
1b
#117340
0`
#118000
1!
1<
#118680
1c
#118766
1^
1Q
#118988
1_
#120000
0!
0<
#120812
0^
0Q
#120858
1d
0a
1U
#121020
0_
#121320
1`
#121379
0b
#122000
1!
1<
#122327
1e
#122613
0c
#122766
1^
1Q
#122988
1_
#123771
1b
#124000
0!
0<
#124193
0U!
0N!
#124812
0^
0Q
#124858
0d
1a
0U
#124893
1l
#124904
1m
#125020
0_
#125110
1{
#125120
1c
#125309
0b
#125340
0`
#126000
1!
1<
#126266
0e
#126394
0|
1t!
#126543
0c
#126766
1^
1Q
#126988
1_
#127588
1b
#128000
0!
0<
#128812
0^
0Q
#128858
0a
#128937
1c
#129020
0_
#129320
1`
#129379
0b
#130000
1!
1<
#130613
0c
#130766
1^
1Q
#130988
1_
#132000
0!
0<
#132812
0^
0Q
#132858
1a
#133020
0_
#133331
1b
#133340
0`
#134000
1!
1<
#134680
1c
#134766
1^
1Q
#134988
1_
#136000
0!
0<
#136812
0^
0Q
#136858
1d
0a
1U
#137020
0_
#137320
1`
#137379
0b
#138000
1!
1<
#138327
1e
#138613
0c
#138766
1^
1Q
#138988
1_
#139771
1b
#140000
0!
0<
#140192
0c!
1b!
#140193
1T!
1U!
#140677
1n
#140810
0m
#140812
0^
0Q
#140858
0d
1a
0U
#140910
1o
#141009
1p
#141020
0_
#141031
0{
#141120
1c
#141309
0b
#141340
0`
#141351
1s
#141352
1&!
#141354
1v
#141939
1}
#141959
0s
#141961
0v
#142000
1!
1<
#142228
1|
0t!
#142266
0e
#142270
1q
#142543
0c
#142766
1^
1Q
#142988
1_
#143588
1b
#144000
0!
0<
#144812
0^
0Q
#144858
0a
#144937
1c
#145020
0_
#145320
1`
#145379
0b
#146000
1!
1<
#146613
0c
#146766
1^
1Q
#146988
1_
#148000
0!
0<
#148812
0^
0Q
#148858
1a
#149020
0_
#149331
1b
#149340
0`
#150000
1!
1<
#150680
1c
#150766
1^
1Q
#150988
1_
#152000
0!
0<
#152812
0^
0Q
#152858
1d
0a
1U
#153020
0_
#153320
1`
#153379
0b
#154000
1!
1<
#154327
1e
#154613
0c
#154766
1^
1Q
#154988
1_
#155771
1b
#156000
0!
0<
#156191
1i!
1e!
#156192
1d!
#156193
1S!
0T!
#156733
0n
#156812
0^
0Q
#156858
0d
1a
0U
#157020
0_
#157090
0p
#157120
1c
#157309
0b
#157340
0`
#157608
0:!
#157667
16!
#157721
1.!
#157834
0r
1v!
#157844
1#!
#158000
1!
1<
#158008
13!
#158266
0e
#158284
0q
#158328
19!
#158543
0c
#158766
1^
1Q
#158988
1_
#159151
1$!
#159588
1b
#160000
0!
0<
#160812
0^
0Q
#160858
0a
#160937
1c
#161020
0_
#161320
1`
#161379
0b
#162000
1!
1<
#162613
0c
#162766
1^
1Q
#162988
1_
#164000
0!
0<
#164812
0^
0Q
#164858
1a
#165020
0_
#165331
1b
#165340
0`
#166000
1!
1<
#166680
1c
#166766
1^
1Q
#166988
1_
#168000
0!
0<
#168812
0^
0Q
#168858
1d
0a
1U
#169020
0_
#169320
1`
#169379
0b
#170000
1!
1<
#170327
1e
#170613
0c
#170630
1?!
0B!
0A!
1>!
#170766
1^
1Q
#170988
1_
#171104
0w
#171112
0~
#171534
1w
#171705
1'!
#171771
1b
#171890
0z
#172000
0!
0<
#172193
1R!
0S!
#172197
1X!
#172273
1z
#172679
0$!
#172812
0^
0Q
#172858
0d
1a
0U
#172886
0f
#172909
1t
#173020
0_
#173120
1c
#173175
1j
#173198
1%!
#173309
0b
#173340
0`
#173749
0#!
#173771
1r
0v!
#174000
1!
1<
#174004
1{
#174266
0e
#174543
0c
#174766
1^
1Q
#174953
1f
#174962
0t
#174988
1_
#175003
1$!
#175288
0|
1t!
#175588
1b
#176000
0!
0<
#176812
0^
0Q
#176858
0a
#176937
1c
#177020
0_
#177320
1`
#177379
0b
#178000
1!
1<
#178613
0c
#178766
1^
1Q
#178988
1_
#180000
0!
0<
#180812
0^
0Q
#180858
1a
#181020
0_
#181331
1b
#181340
0`
#182000
1!
1<
#182680
1c
#182766
1^
1Q
#182988
1_
#184000
0!
0<
#184812
0^
0Q
#184858
1d
0a
1U
#185020
0_
#185320
1`
#185379
0b
#186000
1!
1<
#186327
1e
#186613
0c
#186766
1^
1Q
#186988
1_
#187771
1b
#188000
0!
0<
#188192
1c!
#188193
0R!
1Q!
#188812
0^
0Q
#188822
1p
#188858
0d
1a
0U
#188988
0o
#189020
0_
#189120
1c
#189142
0j
#189309
0b
#189337
0&!
#189339
0}
#189340
0`
#189359
1x
#189444
0{
#190000
1!
1<
#190083
1q
#190266
0e
#190543
0c
#190641
1|
0t!
#190766
1^
1Q
#190988
1_
#191588
1b
#192000
0!
0<
#192812
0^
0Q
#192858
0a
#192937
1c
#193020
0_
#193320
1`
#193379
0b
#194000
1!
1<
#194613
0c
#194766
1^
1Q
#194988
1_
#196000
0!
0<
#196812
0^
0Q
#196858
1a
#197020
0_
#197331
1b
#197340
0`
#198000
1!
1<
#198680
1c
#198766
1^
1Q
#198988
1_
#200000
0!
0<
#200812
0^
0Q
#200858
1d
0a
1U
#201020
0_
#201320
1`
#201379
0b
#202000
1!
1<
#202327
1e
#202613
0c
#202766
1^
1Q
#202988
1_
#203771
1b
#204000
0!
0<
#204191
0i!
0e!
1k!
#204192
0d!
#204193
1P!
0Q!
#204812
0^
0Q
#204858
0d
1a
0U
#204893
0p
#204960
1"!
#205020
0_
#205120
1c
#205207
1k
#205309
0b
#205340
0`
#205570
0.!
#205588
1=!
#205596
1y
#205621
1:!
#205635
06!
#205880
1#!
#205984
03!
#206000
1!
1<
#206087
0q
#206147
09!
#206266
0e
#206543
0c
#206766
1^
1Q
#206988
1_
#207138
1t
#207145
0f
#207197
0$!
#207588
1b
#207716
0*!
0I
#208000
0!
0<
#208812
0^
0Q
#208858
0a
#208937
1c
#209020
0_
#209200
0+!
#209320
1`
#209379
0b
#210000
1!
1<
#210613
0c
#210766
1^
1Q
#210775
0I!
#210798
1K!
#210939
0G!
#210940
0H!
#210942
0L!
#210943
0J!
#210955
1M!
#210988
1_
#211153
0F!
#212000
0!
0<
#212812
0^
0Q
#212858
1a
#213020
0_
#213331
1b
#213340
0`
#214000
1!
1<
#214680
1c
#214766
1^
1Q
#214988
1_
#216000
0!
0<
#216812
0^
0Q
#216858
1d
0a
1U
#217020
0_
#217320
1`
#217379
0b
#218000
1!
1<
#218327
1e
#218331
1O!
#218613
0c
#218766
1^
1Q
#218826
14!
1M
#218988
1_
#219666
1,!
#219771
1b
#220000
0!
0<
#220193
0P!
#220197
0X!
1V!
0W!
#220451
15!
#220659
1f
1$!
#220679
0t
#220812
0^
0Q
#220858
0d
1a
0U
#220911
0f
#220934
1t
#221020
0_
#221034
0"!
#221120
1c
#221145
1u
0%!
#221160
0k
#221161
0i
#221309
0b
#221340
0`
#221866
0#!
#221982
0r!
#221999
0n!
0m!
0l!
#222000
1!
1<
#222007
0p!
#222009
0o!
#222028
1q!
#222029
1s!
#222110
0-!
1u!
#222266
0e
#222543
0c
#222766
1^
1Q
#222988
1_
#223130
0$!
#223588
1b
#223621
1*!
1I
#224000
0!
0<
#224812
0^
0Q
#224858
0a
#224937
1c
#225020
0_
#225264
1+!
#225320
1`
#225379
0b
#226000
1!
1<
#226049
0\
0:
0)
#226371
0V
04
0#
#226383
0W
05
0$
#226522
1[
19
1(
#226613
0c
#226680
0Z
08
0'
#226766
1^
1Q
#226767
0X
06
0%
#226791
0Y
07
0&
#226847
1]
1;
1*
#226988
1_
#228000
0!
0<
#228812
0^
0Q
#228858
1a
#229020
0_
#229331
1b
#229340
0`
#230000
1!
1<
#230680
1c
#230766
1^
1Q
#230988
1_
#232000
0!
0<
#232812
0^
0Q
#232858
1d
0a
1U
#233020
0_
#233320
1`
#233379
0b
#234000
1!
1<
#234327
1e
#234331
0O!
#234613
0c
#234766
1^
1Q
#234874
04!
0M
#234988
1_
#235637
0,!
#235771
1b
#236000
0!
0<
#236191
1`!
#236193
1N!
#236343
05!
#236805
0l
#236812
0^
0Q
#236858
0d
1a
0U
#237020
0_
#237120
1c
#237206
0=!
#237286
1;!
#237309
0b
#237340
0`
#237893
1<!
#237916
1-!
0u!
#238000
1!
1<
#238266
0e
#238543
0c
#238766
1^
1Q
#238988
1_
#239588
1b
#240000
0!
0<
#240812
0^
0Q
#240858
0a
#240937
1c
#241020
0_
#241320
1`
#241379
0b
#242000
1!
1<
#242613
0c
#242766
1^
1Q
#242988
1_
#244000
0!
0<
#244812
0^
0Q
#244858
1a
#245020
0_
#245331
1b
#245340
0`
#246000
1!
1<
#246680
1c
#246766
1^
1Q
#246988
1_
#248000
0!
0<
#248812
0^
0Q
#248858
1d
0a
1U
#249020
0_
#249320
1`
#249379
0b
#250000
1!
1<
#250327
1e
#250613
0c
#250766
1^
1Q
#250988
1_
#251771
1b
#252000
0!
0<
#252193
0U!
0N!
#252812
0^
0Q
#252858
0d
1a
0U
#252893
1l
#252904
1m
#253020
0_
#253110
1{
#253120
1c
#253309
0b
#253340
0`
#254000
1!
1<
#254266
0e
#254394
0|
1t!
#254543
0c
#254766
1^
1Q
#254988
1_
#255588
1b
#256000
0!
0<
#256812
0^
0Q
#256858
0a
#256937
1c
#257020
0_
#257320
1`
#257379
0b
#258000
1!
1<
#258613
0c
#258766
1^
1Q
#258988
1_
#260000
0!
0<
#260812
0^
0Q
#260858
1a
#261020
0_
#261331
1b
#261340
0`
#262000
1!
1<
#262680
1c
#262766
1^
1Q
#262988
1_
#264000
0!
0<
#264812
0^
0Q
#264858
1d
0a
1U
#265020
0_
#265320
1`
#265379
0b
#266000
1!
1<
#266327
1e
#266613
0c
#266766
1^
1Q
#266988
1_
#267771
1b
#268000
0!
0<
#268192
0c!
0b!
1a!
#268193
1T!
1U!
#268677
1n
#268810
0m
#268812
0^
0Q
#268858
0d
1a
0U
#269009
1p
#269020
0_
#269031
0{
#269120
1c
#269309
0b
#269331
0x
#269340
0`
#269352
1&!
#269898
1}
#269914
1s
#270000
1!
1<
#270228
1|
0t!
#270266
0e
